in client 
=================
    1 sudo hostname master
    2  bash
    3  sudo useradd ansible
    4  sudo passwd ansible
    5  sudo  visudo
    6  sudo su - ansible
       *****
6.1  ansible all -m ping
    2  exit
    3  sudo useradd ansible
    4  sudo visudo
    5  sudo vi /etc/ssh/sshd_config
    6  sudo service ssh restart
    7  service ssh restart
    8  service sshd restart
    9  sudo service sshd restart
   10  ls -la
   11  cd .ssh/
   12  ls
   13  cat authorized_keys
   14  history
   15  sudo useradd ansible
   16  sudo hostname client
   17  bash


+++++++++++++++++++++++++++++++++++++++++++++++++++++++++++++++
In master
     ****
 sudo hostname ansible
    2  bash
    3  sudo hostname client
    4  bash
    5  sudo yum-config-manager --enable epel
    6  sudo yum repolist
    7  sudo yum install ansible -y
    8  sudo hostname master
    9  bash
   10  ansible --version
   11  sudo su - ansib;e
   12  sudo su - ansible
   13  sudo useradd ansible
   14  sudo passwd ansible
   15  sudo visudo
   16  sudo su - ansible
   17  ls
   18  history
   19   sudo su - ansible
   20  sudo vi /etc/ansible/hosts
 
after entering into ansible@master
       ##########
 sudo vi /etc/ansible/hosts
    2  ansible all -m ping
    3  sudo ansible all -m ping
    4  ssh-keygen
    5  cd .ssh/
    6  ll
    7  cd
    8  chmod 700 ssh/
    9  sudo chmod 700 ssh/
   10  sudo chmod 700 .ssh/
   11  ls -la
   12  ssh-copy-id -i ansible@13.233.244.83
   13  sudo ssh-copy-id -i ansible@13.233.244.83
   14  sudo ssh-copy-id -i  ~/.ssh/id_rsa.pub ansible@13.233.244.83
   15  sudo ssh-copy-id -i ansible@13.233.244.83
   16  sudo ssh-copy-id -i  ~/.ssh/id_rsa.pub ansible@13.233.244.83
   17  ssh ansible@13.233.244.83
   18  ansible all -m ping
